<?xml version="1.0" encoding="UTF-8" standalone="no"?>
<!-- Created with Inkscape (http://www.inkscape.org/) -->

<svg
   xmlns:dc="http://purl.org/dc/elements/1.1/"
   xmlns:cc="http://creativecommons.org/ns#"
   xmlns:rdf="http://www.w3.org/1999/02/22-rdf-syntax-ns#"
   xmlns:svg="http://www.w3.org/2000/svg"
   xmlns="http://www.w3.org/2000/svg"
   xmlns:xlink="http://www.w3.org/1999/xlink"
   xmlns:sodipodi="http://sodipodi.sourceforge.net/DTD/sodipodi-0.dtd"
   xmlns:inkscape="http://www.inkscape.org/namespaces/inkscape"
   id="svg2"
   height="120"
   width="1200"
   version="1.1"
   viewBox="0 0 1200 120"
   inkscape:version="0.91 r13725"
   sodipodi:docname="header1.svg">
  <sodipodi:namedview
     pagecolor="#ffffff"
     bordercolor="#666666"
     borderopacity="1"
     objecttolerance="10"
     gridtolerance="10"
     guidetolerance="10"
     inkscape:pageopacity="0"
     inkscape:pageshadow="2"
     inkscape:window-width="1366"
     inkscape:window-height="705"
     id="namedview11"
     showgrid="false"
     inkscape:zoom="0.35355339"
     inkscape:cx="434.66523"
     inkscape:cy="-429.17073"
     inkscape:window-x="-8"
     inkscape:window-y="-8"
     inkscape:window-maximized="1"
     inkscape:current-layer="svg2"
     showguides="true"
     inkscape:guide-bbox="true"
     inkscape:snap-bbox="true"
     inkscape:bbox-paths="false"
     inkscape:bbox-nodes="false"
     inkscape:object-nodes="false"
     inkscape:object-paths="false"
     inkscape:snap-intersection-paths="true"
     inkscape:snap-page="true"
     fit-margin-bottom="0.1"
     height="201px">
    <sodipodi:guide
       position="-6.0021183,-353.41944"
       orientation="1,0"
       id="guide4475" />
    <sodipodi:guide
       position="991.99219,-353.42188"
       orientation="1,0"
       id="guide4481" />
  </sodipodi:namedview>
  <defs
     id="defs4">
    <linearGradient
       x1="572.89001"
       y1="788.08002"
       x2="565.67999"
       gradientUnits="userSpaceOnUse"
       y2="952.35999"
       id="linearGradient4160">
      <stop
         offset="0"
         id="stop4144" />
      <stop
         id="stop4150"
         offset="0.16771536"
         style="stop-color:#000000;stop-opacity:0.273743" />
      <stop
         offset="1"
         style="stop-opacity:0"
         id="stop4146" />
    </linearGradient>
    <linearGradient
       id="linearGradient4148"
       y2="952.35999"
       gradientUnits="userSpaceOnUse"
       x2="565.67999"
       y1="788.08002"
       x1="572.89001">
      <stop
         id="stop4156"
         offset="0" />
      <stop
         id="stop4158"
         style="stop-opacity:0"
         offset="1" />
    </linearGradient>
    <linearGradient
       inkscape:collect="always"
       xlink:href="#linearGradient4160"
       id="linearGradient4140"
       x1="352.13916"
       y1="834.57111"
       x2="347.89655"
       y2="940.63708"
       gradientUnits="userSpaceOnUse"
       gradientTransform="translate(0,-852.36)" />
  </defs>
  <metadata
     id="metadata7">
    <rdf:RDF>
      <cc:Work
         rdf:about="">
        <dc:format>image/svg+xml</dc:format>
        <dc:type
           rdf:resource="http://purl.org/dc/dcmitype/StillImage" />
        <dc:title></dc:title>
      </cc:Work>
    </rdf:RDF>
  </metadata>
  <path
     sodipodi:nodetypes="ccccc"
     inkscape:connector-curvature="0"
     d="m 0,23.59 1199.9325,0 0.068,101.22 -1200,-34.0004 z"
     style="opacity:1;fill:url(#linearGradient4140);fill-opacity:1;fill-rule:nonzero"
     id="rect4136-8" />
  <path
     sodipodi:nodetypes="ccccc"
     inkscape:connector-curvature="0"
     d="m 0,0 1200,0 0,90.088 L 0,42.938 Z"
     style="opacity:1;fill:#94231d;fill-opacity:1"
     id="rect4136" />
</svg>
